Lab 5
…
## [1] 3068.25

There are 10,419 total accidents in the four winter months, which averages 2,604 accidents per month. In the summer, there was 12,273 deaths (mean = 3,068.25) accidents.

summerByState <- summer %>%
  group_by(STATE) %>%
  summarize(summerCount = n())

## `summarise()` ungrouping output (override with `.groups` argument)

summerByState

## # A tibble: 51 x 2
##    STATE summerCount
##    <int>       <int>
##  1     1         294
##  2     2          29
##  3     4         310
##  4     5         166
##  5     6        1147
##  6     8         243
##  7     9          92
##  8    10          47
##  9    11          11
## 10    12         891
## #  with 41 more rows

winterByState <- winter %>%
  group_by(STATE) %>%
  summarize(winterCount = n())

## `summarise()` ungrouping output (override with `.groups` argument)

summerByState

## # A tibble: 51 x 2
##    STATE summerCount
##    <int>       <int>
##  1     1         294
##  2     2          29
##  3     4         310
##  4     5         166
##  5     6        1147
##  6     8         243
##  7     9          92
##  8    10          47
##  9    11          11
## 10    12         891
## #  with 41 more rows

byState <- summerByState %>%
  inner_join(winterByState, by = ("STATE" = "STATE"))
byState 

## # A tibble: 51 x 3
##    STATE summerCount winterCount
##    <int>       <int>       <int>
##  1     1         294         270
##  2     2          29          23
##  3     4         310         293
##  4     5         166         137
##  5     6        1147        1058
##  6     8         243         158
##  7     9          92          76
##  8    10          47          32
##  9    11          11           8
## 10    12         891        1050
## #  with 41 more rows

state <- codes %>%
  select(`State Name`, `State Code`) %>%
  inner_join(byState, by = c('State Code' = "STATE"))

state <- unique(state)
state

## # A tibble: 51 x 4
##    `State Name`         `State Code` summerCount winterCount
##    <chr>                       <dbl>       <int>       <int>
##  1 ALABAMA                         1         294         270
##  2 ALASKA                          2          29          23
##  3 ARIZONA                         4         310         293
##  4 ARKANSAS                        5         166         137
##  5 CALIFORNIA                      6        1147        1058
##  6 COLORADO                        8         243         158
##  7 CONNECTICUT                     9          92          76
##  8 DELAWARE                       10          47          32
##  9 DISTRICT OF COLUMBIA           11          11           8
## 10 FLORIDA                        12         891        1050
## #  with 41 more rows
…
## # A tibble: 4 x 4
##   `State Name`   `State Code` summerCount winterCount
##   <chr>                 <dbl>       <int>       <int>
## 1 FLORIDA                  12         891        1050
## 2 HAWAII                   15          25          36
## 3 LOUISIANA                22         211         230
## 4 SOUTH CAROLINA           45         280         301

summerState <- state %>%
   filter (summerCount - winterCount > 0)
summerState

## # A tibble: 47 x 4
##    `State Name`         `State Code` summerCount winterCount
##    <chr>                       <dbl>       <int>       <int>
##  1 ALABAMA                         1         294         270
##  2 ALASKA                          2          29          23
##  3 ARIZONA                         4         310         293
##  4 ARKANSAS                        5         166         137
##  5 CALIFORNIA                      6        1147        1058
##  6 COLORADO                        8         243         158
##  7 CONNECTICUT                     9          92          76
##  8 DELAWARE                       10          47          32
##  9 DISTRICT OF COLUMBIA           11          11           8
## 10 GEORGIA                        13         484         468
## #  with 37 more rows
…
